…
> gg3 <- (ggplot(ddclean, aes(x = Date, y = prop, color = Province)) + 
+     scale_colour_discrete_qualitative() + scale_y_continuous(trans = "log2") .... [TRUNCATED] 

> print(gg3)

> print(gg3 + geom_line(aes(y = newTests), color = "black") + 
+     facet_wrap_paginate(~Province, nrow = 1, ncol = 1, page = 9))

> hosp_lab_dat <- (label_dat %>% select(Date, Province, 
+     Hospitalization = lab_hosp, ICU = lab_icu, Ventilator = lab_vent) %>% 
+     gather(key .... [TRUNCATED] 

> print(hosp_lab_dat)
# A tibble: 39 x 4
# Groups:   Province [13]
   Date       Province HospType        labs    
   <date>     <chr>    <chr>           <chr>   
 1 2020-04-16 ON       Hospitalization Hosp:691
 2 2020-04-16 AB       Hospitalization Hosp:47 
 3 2020-04-16 QC       Hospitalization Hosp:778
 4 2020-04-16 BC       Hospitalization Hosp:134
 5 2020-04-13 SK       Hospitalization Hosp:8  
 6 2020-04-13 MB       Hospitalization Hosp:8  
 7 2020-04-13 NL       Hospitalization Hosp:6  
 8 2020-04-16 NB       Hospitalization Hosp:NA 
 9 2020-04-13 NS       Hospitalization Hosp:8  
10 2020-04-16 PEI      Hospitalization Hosp:NA 
# … with 29 more rows
…
